<mxfile host="app.diagrams.net" modified="2021-04-08T21:06:46.176Z" agent="5.0 (X11; Linux x86_64) AppleWebKit/537.36 (KHTML, like Gecko) Chrome/89.0.4389.90 Safari/537.36" etag="ISTMGpR184sm9DsgWUAr" version="14.5.4" type="gitlab">
  <diagram id="zgPKLuNnfMtcKVtNglk9" name="Page-1">
    <mxGraphModel dx="1422" dy="801" grid="1" gridSize="10" guides="1" tooltips="1" connect="1" arrows="1" fold="1" page="1" pageScale="1" pageWidth="850" pageHeight="1100" math="0" shadow="0">
      <root>
        <mxCell id="0" />
        <mxCell id="1" parent="0" />
        <mxCell id="B-JUW0QfOBMbbZU-h0xw-80" value="" style="rounded=0;whiteSpace=wrap;html=1;fillColor=#f5f5f5;strokeColor=#666666;fontColor=#333333;" vertex="1" parent="1">
          <mxGeometry x="1620" y="320" width="220" height="480" as="geometry" />
        </mxCell>
        <mxCell id="B-JUW0QfOBMbbZU-h0xw-27" value="" style="rounded=0;whiteSpace=wrap;html=1;fillColor=#f8cecc;strokeColor=#b85450;" vertex="1" parent="1">
          <mxGeometry x="470" y="360" width="200" height="460" as="geometry" />
        </mxCell>
        <mxCell id="B-JUW0QfOBMbbZU-h0xw-1" value="Protocol-Endpoint-SMTP" style="whiteSpace=wrap;html=1;aspect=fixed;" vertex="1" parent="1">
          <mxGeometry x="240" y="471" width="149" height="149" as="geometry" />
        </mxCell>
        <mxCell id="B-JUW0QfOBMbbZU-h0xw-3" value="Transaction" style="whiteSpace=wrap;html=1;aspect=fixed;" vertex="1" parent="1">
          <mxGeometry x="990" y="380" width="100" height="100" as="geometry" />
        </mxCell>
        <mxCell id="B-JUW0QfOBMbbZU-h0xw-13" style="edgeStyle=orthogonalEdgeStyle;rounded=0;orthogonalLoop=1;jettySize=auto;html=1;" edge="1" parent="1" source="B-JUW0QfOBMbbZU-h0xw-2" target="B-JUW0QfOBMbbZU-h0xw-1">
          <mxGeometry relative="1" as="geometry" />
        </mxCell>
        <mxCell id="B-JUW0QfOBMbbZU-h0xw-2" value="Client" style="whiteSpace=wrap;html=1;aspect=fixed;" vertex="1" parent="1">
          <mxGeometry x="80" y="380" width="90" height="90" as="geometry" />
        </mxCell>
        <mxCell id="B-JUW0QfOBMbbZU-h0xw-4" value="onMailFrom" style="rounded=1;whiteSpace=wrap;html=1;" vertex="1" parent="1">
          <mxGeometry x="510" y="526" width="120" height="60" as="geometry" />
        </mxCell>
        <mxCell id="B-JUW0QfOBMbbZU-h0xw-5" value="onAuth" style="rounded=1;whiteSpace=wrap;html=1;" vertex="1" parent="1">
          <mxGeometry x="510" y="461" width="120" height="60" as="geometry" />
        </mxCell>
        <mxCell id="B-JUW0QfOBMbbZU-h0xw-6" value="onRcpto" style="rounded=1;whiteSpace=wrap;html=1;" vertex="1" parent="1">
          <mxGeometry x="510" y="596" width="120" height="60" as="geometry" />
        </mxCell>
        <mxCell id="B-JUW0QfOBMbbZU-h0xw-7" value="onClose" style="rounded=1;whiteSpace=wrap;html=1;" vertex="1" parent="1">
          <mxGeometry x="510" y="740" width="120" height="60" as="geometry" />
        </mxCell>
        <mxCell id="B-JUW0QfOBMbbZU-h0xw-8" value="onConnect" style="rounded=1;whiteSpace=wrap;html=1;" vertex="1" parent="1">
          <mxGeometry x="510" y="391" width="120" height="60" as="geometry" />
        </mxCell>
        <mxCell id="B-JUW0QfOBMbbZU-h0xw-15" value="sendMail via transport" style="text;html=1;align=center;verticalAlign=middle;resizable=0;points=[];autosize=1;" vertex="1" parent="1">
          <mxGeometry x="185" y="390" width="130" height="20" as="geometry" />
        </mxCell>
        <mxCell id="B-JUW0QfOBMbbZU-h0xw-16" value="1" style="text;html=1;align=center;verticalAlign=middle;resizable=0;points=[];autosize=1;" vertex="1" parent="1">
          <mxGeometry x="230" y="430" width="20" height="20" as="geometry" />
        </mxCell>
        <mxCell id="B-JUW0QfOBMbbZU-h0xw-18" value="" style="endArrow=classic;html=1;entryX=0;entryY=0.5;entryDx=0;entryDy=0;" edge="1" parent="1" target="B-JUW0QfOBMbbZU-h0xw-8">
          <mxGeometry width="50" height="50" relative="1" as="geometry">
            <mxPoint x="390" y="510" as="sourcePoint" />
            <mxPoint x="570" y="710" as="targetPoint" />
            <Array as="points" />
          </mxGeometry>
        </mxCell>
        <mxCell id="B-JUW0QfOBMbbZU-h0xw-19" value="2" style="text;html=1;align=center;verticalAlign=middle;resizable=0;points=[];autosize=1;" vertex="1" parent="1">
          <mxGeometry x="420" y="440" width="20" height="20" as="geometry" />
        </mxCell>
        <mxCell id="B-JUW0QfOBMbbZU-h0xw-20" value="" style="endArrow=classic;html=1;entryX=0;entryY=0.5;entryDx=0;entryDy=0;" edge="1" parent="1" target="B-JUW0QfOBMbbZU-h0xw-5">
          <mxGeometry width="50" height="50" relative="1" as="geometry">
            <mxPoint x="390" y="540" as="sourcePoint" />
            <mxPoint x="440" y="490" as="targetPoint" />
          </mxGeometry>
        </mxCell>
        <mxCell id="B-JUW0QfOBMbbZU-h0xw-21" value="" style="endArrow=classic;html=1;entryX=0;entryY=0.5;entryDx=0;entryDy=0;" edge="1" parent="1" target="B-JUW0QfOBMbbZU-h0xw-6">
          <mxGeometry width="50" height="50" relative="1" as="geometry">
            <mxPoint x="389" y="586" as="sourcePoint" />
            <mxPoint x="509" y="537" as="targetPoint" />
          </mxGeometry>
        </mxCell>
        <mxCell id="B-JUW0QfOBMbbZU-h0xw-22" value="" style="endArrow=classic;html=1;entryX=0;entryY=0.75;entryDx=0;entryDy=0;" edge="1" parent="1" target="B-JUW0QfOBMbbZU-h0xw-4">
          <mxGeometry width="50" height="50" relative="1" as="geometry">
            <mxPoint x="390" y="570" as="sourcePoint" />
            <mxPoint x="510" y="521" as="targetPoint" />
          </mxGeometry>
        </mxCell>
        <mxCell id="B-JUW0QfOBMbbZU-h0xw-23" value="" style="endArrow=classic;html=1;entryX=0;entryY=0.5;entryDx=0;entryDy=0;" edge="1" parent="1" target="B-JUW0QfOBMbbZU-h0xw-7">
          <mxGeometry width="50" height="50" relative="1" as="geometry">
            <mxPoint x="390" y="600" as="sourcePoint" />
            <mxPoint x="510" y="551" as="targetPoint" />
          </mxGeometry>
        </mxCell>
        <mxCell id="B-JUW0QfOBMbbZU-h0xw-24" value="" style="endArrow=classic;html=1;entryX=0;entryY=0.5;entryDx=0;entryDy=0;" edge="1" parent="1" target="B-JUW0QfOBMbbZU-h0xw-3">
          <mxGeometry width="50" height="50" relative="1" as="geometry">
            <mxPoint x="630" y="424.5" as="sourcePoint" />
            <mxPoint x="750" y="375.5" as="targetPoint" />
          </mxGeometry>
        </mxCell>
        <mxCell id="B-JUW0QfOBMbbZU-h0xw-25" value="Spawn" style="text;html=1;align=center;verticalAlign=middle;resizable=0;points=[];autosize=1;" vertex="1" parent="1">
          <mxGeometry x="785" y="400" width="50" height="20" as="geometry" />
        </mxCell>
        <mxCell id="B-JUW0QfOBMbbZU-h0xw-28" value="EVENTS" style="text;html=1;align=center;verticalAlign=middle;resizable=0;points=[];autosize=1;" vertex="1" parent="1">
          <mxGeometry x="540" y="330" width="60" height="20" as="geometry" />
        </mxCell>
        <mxCell id="B-JUW0QfOBMbbZU-h0xw-29" value="3" style="text;html=1;align=center;verticalAlign=middle;resizable=0;points=[];autosize=1;" vertex="1" parent="1">
          <mxGeometry x="765" y="400" width="20" height="20" as="geometry" />
        </mxCell>
        <mxCell id="B-JUW0QfOBMbbZU-h0xw-40" value="onData" style="rounded=1;whiteSpace=wrap;html=1;" vertex="1" parent="1">
          <mxGeometry x="510" y="666" width="120" height="60" as="geometry" />
        </mxCell>
        <mxCell id="B-JUW0QfOBMbbZU-h0xw-41" value="" style="endArrow=classic;html=1;entryX=0;entryY=0.5;entryDx=0;entryDy=0;exitX=0.993;exitY=0.812;exitDx=0;exitDy=0;exitPerimeter=0;" edge="1" parent="1" source="B-JUW0QfOBMbbZU-h0xw-1" target="B-JUW0QfOBMbbZU-h0xw-40">
          <mxGeometry width="50" height="50" relative="1" as="geometry">
            <mxPoint x="399" y="596" as="sourcePoint" />
            <mxPoint x="520" y="636" as="targetPoint" />
          </mxGeometry>
        </mxCell>
        <mxCell id="B-JUW0QfOBMbbZU-h0xw-42" value="" style="group" vertex="1" connectable="0" parent="1">
          <mxGeometry x="630" y="900" width="940" height="190" as="geometry" />
        </mxCell>
        <mxCell id="B-JUW0QfOBMbbZU-h0xw-32" value="" style="rounded=0;whiteSpace=wrap;html=1;fillColor=#ffe6cc;strokeColor=#d79b00;" vertex="1" parent="B-JUW0QfOBMbbZU-h0xw-42">
          <mxGeometry y="30" width="940" height="160" as="geometry" />
        </mxCell>
        <mxCell id="B-JUW0QfOBMbbZU-h0xw-9" value="Email_Checker" style="whiteSpace=wrap;html=1;aspect=fixed;fillColor=#fff2cc;strokeColor=#d6b656;" vertex="1" parent="B-JUW0QfOBMbbZU-h0xw-42">
          <mxGeometry x="560" y="60" width="100" height="100" as="geometry" />
        </mxCell>
        <mxCell id="B-JUW0QfOBMbbZU-h0xw-10" value="Receive_Email" style="whiteSpace=wrap;html=1;aspect=fixed;fillColor=#f5f5f5;strokeColor=#666666;fontColor=#333333;" vertex="1" parent="B-JUW0QfOBMbbZU-h0xw-42">
          <mxGeometry x="310" y="60" width="100" height="100" as="geometry" />
        </mxCell>
        <mxCell id="B-JUW0QfOBMbbZU-h0xw-11" value="Activate_Email" style="whiteSpace=wrap;html=1;aspect=fixed;" vertex="1" parent="B-JUW0QfOBMbbZU-h0xw-42">
          <mxGeometry x="75" y="60" width="100" height="100" as="geometry" />
        </mxCell>
        <mxCell id="B-JUW0QfOBMbbZU-h0xw-12" value="Send_Email" style="whiteSpace=wrap;html=1;aspect=fixed;" vertex="1" parent="B-JUW0QfOBMbbZU-h0xw-42">
          <mxGeometry x="800" y="60" width="100" height="100" as="geometry" />
        </mxCell>
        <mxCell id="B-JUW0QfOBMbbZU-h0xw-43" value="5" style="text;html=1;align=center;verticalAlign=middle;resizable=0;points=[];autosize=1;" vertex="1" parent="1">
          <mxGeometry x="420" y="490" width="20" height="20" as="geometry" />
        </mxCell>
        <mxCell id="B-JUW0QfOBMbbZU-h0xw-47" value="" style="group" vertex="1" connectable="0" parent="1">
          <mxGeometry x="1275" y="360" width="204" height="400" as="geometry" />
        </mxCell>
        <mxCell id="B-JUW0QfOBMbbZU-h0xw-34" value="" style="rounded=0;whiteSpace=wrap;html=1;fillColor=#d5e8d4;strokeColor=#82b366;" vertex="1" parent="B-JUW0QfOBMbbZU-h0xw-47">
          <mxGeometry width="200" height="400" as="geometry" />
        </mxCell>
        <mxCell id="B-JUW0QfOBMbbZU-h0xw-35" value="onMailFrom" style="rounded=1;whiteSpace=wrap;html=1;" vertex="1" parent="B-JUW0QfOBMbbZU-h0xw-47">
          <mxGeometry x="40" y="100" width="120" height="60" as="geometry" />
        </mxCell>
        <mxCell id="B-JUW0QfOBMbbZU-h0xw-36" value="onAuth" style="rounded=1;whiteSpace=wrap;html=1;" vertex="1" parent="B-JUW0QfOBMbbZU-h0xw-47">
          <mxGeometry x="40" y="15" width="120" height="60" as="geometry" />
        </mxCell>
        <mxCell id="B-JUW0QfOBMbbZU-h0xw-37" value="onRcpto" style="rounded=1;whiteSpace=wrap;html=1;" vertex="1" parent="B-JUW0QfOBMbbZU-h0xw-47">
          <mxGeometry x="40" y="170" width="120" height="60" as="geometry" />
        </mxCell>
        <mxCell id="B-JUW0QfOBMbbZU-h0xw-38" value="onClose" style="rounded=1;whiteSpace=wrap;html=1;" vertex="1" parent="B-JUW0QfOBMbbZU-h0xw-47">
          <mxGeometry x="40" y="306" width="120" height="60" as="geometry" />
        </mxCell>
        <mxCell id="B-JUW0QfOBMbbZU-h0xw-39" value="onData" style="rounded=1;whiteSpace=wrap;html=1;" vertex="1" parent="B-JUW0QfOBMbbZU-h0xw-47">
          <mxGeometry x="40" y="236" width="120" height="60" as="geometry" />
        </mxCell>
        <mxCell id="B-JUW0QfOBMbbZU-h0xw-77" value="" style="endArrow=classic;html=1;exitX=1;exitY=0.5;exitDx=0;exitDy=0;" edge="1" parent="B-JUW0QfOBMbbZU-h0xw-47" source="B-JUW0QfOBMbbZU-h0xw-35">
          <mxGeometry width="50" height="50" relative="1" as="geometry">
            <mxPoint x="165" y="170" as="sourcePoint" />
            <mxPoint x="365" y="130" as="targetPoint" />
          </mxGeometry>
        </mxCell>
        <mxCell id="B-JUW0QfOBMbbZU-h0xw-48" value="SOCKET" style="ellipse;whiteSpace=wrap;html=1;" vertex="1" parent="1">
          <mxGeometry x="980" y="680" width="120" height="80" as="geometry" />
        </mxCell>
        <mxCell id="B-JUW0QfOBMbbZU-h0xw-51" value="" style="endArrow=classic;html=1;entryX=0.017;entryY=0.688;entryDx=0;entryDy=0;entryPerimeter=0;exitX=0.5;exitY=0;exitDx=0;exitDy=0;" edge="1" parent="1" source="B-JUW0QfOBMbbZU-h0xw-11" target="B-JUW0QfOBMbbZU-h0xw-48">
          <mxGeometry width="50" height="50" relative="1" as="geometry">
            <mxPoint x="750" y="940" as="sourcePoint" />
            <mxPoint x="800" y="890" as="targetPoint" />
          </mxGeometry>
        </mxCell>
        <mxCell id="B-JUW0QfOBMbbZU-h0xw-52" value="ACTIVATE_EMAIL" style="text;html=1;align=center;verticalAlign=middle;resizable=0;points=[];autosize=1;rotation=-45;" vertex="1" parent="1">
          <mxGeometry x="775" y="850" width="120" height="20" as="geometry" />
        </mxCell>
        <mxCell id="B-JUW0QfOBMbbZU-h0xw-53" value="" style="endArrow=classic;html=1;exitX=0.5;exitY=0;exitDx=0;exitDy=0;entryX=0.433;entryY=1;entryDx=0;entryDy=0;entryPerimeter=0;" edge="1" parent="1" source="B-JUW0QfOBMbbZU-h0xw-10" target="B-JUW0QfOBMbbZU-h0xw-48">
          <mxGeometry width="50" height="50" relative="1" as="geometry">
            <mxPoint x="1070" y="760" as="sourcePoint" />
            <mxPoint x="1120" y="710" as="targetPoint" />
          </mxGeometry>
        </mxCell>
        <mxCell id="B-JUW0QfOBMbbZU-h0xw-54" value="RECEIVE_EMAIL" style="text;html=1;align=center;verticalAlign=middle;resizable=0;points=[];autosize=1;rotation=-75;" vertex="1" parent="1">
          <mxGeometry x="940" y="850" width="110" height="20" as="geometry" />
        </mxCell>
        <mxCell id="B-JUW0QfOBMbbZU-h0xw-55" value="" style="endArrow=classic;html=1;exitX=0.5;exitY=0;exitDx=0;exitDy=0;entryX=0.758;entryY=0.95;entryDx=0;entryDy=0;entryPerimeter=0;" edge="1" parent="1" source="B-JUW0QfOBMbbZU-h0xw-9" target="B-JUW0QfOBMbbZU-h0xw-48">
          <mxGeometry width="50" height="50" relative="1" as="geometry">
            <mxPoint x="1070" y="760" as="sourcePoint" />
            <mxPoint x="1120" y="710" as="targetPoint" />
          </mxGeometry>
        </mxCell>
        <mxCell id="B-JUW0QfOBMbbZU-h0xw-56" value="" style="endArrow=classic;html=1;exitX=0.5;exitY=0;exitDx=0;exitDy=0;entryX=1.008;entryY=0.638;entryDx=0;entryDy=0;entryPerimeter=0;" edge="1" parent="1" source="B-JUW0QfOBMbbZU-h0xw-12" target="B-JUW0QfOBMbbZU-h0xw-48">
          <mxGeometry width="50" height="50" relative="1" as="geometry">
            <mxPoint x="1070" y="760" as="sourcePoint" />
            <mxPoint x="1120" y="710" as="targetPoint" />
          </mxGeometry>
        </mxCell>
        <mxCell id="B-JUW0QfOBMbbZU-h0xw-57" value="EMAIL_CHECKER" style="text;html=1;align=center;verticalAlign=middle;resizable=0;points=[];autosize=1;rotation=50;" vertex="1" parent="1">
          <mxGeometry x="1120" y="860" width="120" height="20" as="geometry" />
        </mxCell>
        <mxCell id="B-JUW0QfOBMbbZU-h0xw-58" value="SEND_EMAIL" style="text;html=1;align=center;verticalAlign=middle;resizable=0;points=[];autosize=1;rotation=30;" vertex="1" parent="1">
          <mxGeometry x="1240" y="820" width="90" height="20" as="geometry" />
        </mxCell>
        <mxCell id="B-JUW0QfOBMbbZU-h0xw-59" value="RUNNING WORKFLOWS" style="text;html=1;align=center;verticalAlign=middle;resizable=0;points=[];autosize=1;" vertex="1" parent="1">
          <mxGeometry x="1015" y="1090" width="150" height="20" as="geometry" />
        </mxCell>
        <mxCell id="B-JUW0QfOBMbbZU-h0xw-60" value="" style="endArrow=classic;html=1;exitX=0.5;exitY=1;exitDx=0;exitDy=0;entryX=0.5;entryY=0;entryDx=0;entryDy=0;" edge="1" parent="1" source="B-JUW0QfOBMbbZU-h0xw-3" target="B-JUW0QfOBMbbZU-h0xw-48">
          <mxGeometry width="50" height="50" relative="1" as="geometry">
            <mxPoint x="1070" y="650" as="sourcePoint" />
            <mxPoint x="1120" y="600" as="targetPoint" />
          </mxGeometry>
        </mxCell>
        <mxCell id="B-JUW0QfOBMbbZU-h0xw-61" value="4" style="text;html=1;align=center;verticalAlign=middle;resizable=0;points=[];autosize=1;" vertex="1" parent="1">
          <mxGeometry x="1010" y="540" width="20" height="20" as="geometry" />
        </mxCell>
        <mxCell id="B-JUW0QfOBMbbZU-h0xw-62" value="RECEIVE_EMAIL" style="text;html=1;align=center;verticalAlign=middle;resizable=0;points=[];autosize=1;rotation=90;" vertex="1" parent="1">
          <mxGeometry x="1000" y="550" width="110" height="20" as="geometry" />
        </mxCell>
        <mxCell id="B-JUW0QfOBMbbZU-h0xw-63" value="" style="endArrow=classic;html=1;exitX=1;exitY=0.5;exitDx=0;exitDy=0;entryX=0;entryY=0.75;entryDx=0;entryDy=0;" edge="1" parent="1" source="B-JUW0QfOBMbbZU-h0xw-5" target="B-JUW0QfOBMbbZU-h0xw-3">
          <mxGeometry width="50" height="50" relative="1" as="geometry">
            <mxPoint x="1070" y="760" as="sourcePoint" />
            <mxPoint x="1120" y="710" as="targetPoint" />
          </mxGeometry>
        </mxCell>
        <mxCell id="B-JUW0QfOBMbbZU-h0xw-64" value="onAuth" style="text;html=1;align=center;verticalAlign=middle;resizable=0;points=[];autosize=1;" vertex="1" parent="1">
          <mxGeometry x="785" y="451" width="50" height="20" as="geometry" />
        </mxCell>
        <mxCell id="B-JUW0QfOBMbbZU-h0xw-65" value="6" style="text;html=1;align=center;verticalAlign=middle;resizable=0;points=[];autosize=1;" vertex="1" parent="1">
          <mxGeometry x="764" y="450" width="20" height="20" as="geometry" />
        </mxCell>
        <mxCell id="B-JUW0QfOBMbbZU-h0xw-66" value="" style="endArrow=classic;html=1;exitX=1;exitY=0.25;exitDx=0;exitDy=0;entryX=0;entryY=0.5;entryDx=0;entryDy=0;" edge="1" parent="1" source="B-JUW0QfOBMbbZU-h0xw-3" target="B-JUW0QfOBMbbZU-h0xw-36">
          <mxGeometry width="50" height="50" relative="1" as="geometry">
            <mxPoint x="1110" y="470" as="sourcePoint" />
            <mxPoint x="1160" y="420" as="targetPoint" />
          </mxGeometry>
        </mxCell>
        <mxCell id="B-JUW0QfOBMbbZU-h0xw-67" value="7" style="text;html=1;align=center;verticalAlign=middle;resizable=0;points=[];autosize=1;" vertex="1" parent="1">
          <mxGeometry x="1190" y="370" width="20" height="20" as="geometry" />
        </mxCell>
        <mxCell id="B-JUW0QfOBMbbZU-h0xw-68" value="Type: SMTP_AUTHENCATION&lt;br&gt;Auth:SMTPServerAuthentication&lt;br&gt;session:SMTPServerSession" style="shape=callout;whiteSpace=wrap;html=1;perimeter=calloutPerimeter;position2=0.5;align=left;" vertex="1" parent="1">
          <mxGeometry x="1640" y="370" width="180" height="100" as="geometry" />
        </mxCell>
        <mxCell id="B-JUW0QfOBMbbZU-h0xw-69" value="" style="endArrow=classic;html=1;exitX=1;exitY=0.5;exitDx=0;exitDy=0;entryX=0;entryY=0;entryDx=0;entryDy=35;entryPerimeter=0;" edge="1" parent="1" source="B-JUW0QfOBMbbZU-h0xw-36" target="B-JUW0QfOBMbbZU-h0xw-68">
          <mxGeometry width="50" height="50" relative="1" as="geometry">
            <mxPoint x="1070" y="640" as="sourcePoint" />
            <mxPoint x="1120" y="590" as="targetPoint" />
          </mxGeometry>
        </mxCell>
        <mxCell id="B-JUW0QfOBMbbZU-h0xw-70" value="8" style="text;html=1;align=center;verticalAlign=middle;resizable=0;points=[];autosize=1;" vertex="1" parent="1">
          <mxGeometry x="1530" y="380" width="20" height="20" as="geometry" />
        </mxCell>
        <mxCell id="B-JUW0QfOBMbbZU-h0xw-71" value="9" style="text;html=1;align=center;verticalAlign=middle;resizable=0;points=[];autosize=1;" vertex="1" parent="1">
          <mxGeometry x="420" y="550" width="20" height="20" as="geometry" />
        </mxCell>
        <mxCell id="B-JUW0QfOBMbbZU-h0xw-72" value="" style="endArrow=classic;html=1;exitX=1;exitY=0.5;exitDx=0;exitDy=0;entryX=0;entryY=0.75;entryDx=0;entryDy=0;" edge="1" parent="1" source="B-JUW0QfOBMbbZU-h0xw-4" target="B-JUW0QfOBMbbZU-h0xw-3">
          <mxGeometry width="50" height="50" relative="1" as="geometry">
            <mxPoint x="630" y="590" as="sourcePoint" />
            <mxPoint x="980" y="460" as="targetPoint" />
          </mxGeometry>
        </mxCell>
        <mxCell id="B-JUW0QfOBMbbZU-h0xw-73" value="onMailFrom" style="text;html=1;align=center;verticalAlign=middle;resizable=0;points=[];autosize=1;rotation=-15;" vertex="1" parent="1">
          <mxGeometry x="734" y="493" width="80" height="20" as="geometry" />
        </mxCell>
        <mxCell id="B-JUW0QfOBMbbZU-h0xw-74" value="10" style="text;html=1;align=center;verticalAlign=middle;resizable=0;points=[];autosize=1;rotation=-15;" vertex="1" parent="1">
          <mxGeometry x="710" y="506" width="30" height="20" as="geometry" />
        </mxCell>
        <mxCell id="B-JUW0QfOBMbbZU-h0xw-75" value="" style="endArrow=classic;html=1;exitX=1;exitY=0.5;exitDx=0;exitDy=0;entryX=0;entryY=0.5;entryDx=0;entryDy=0;" edge="1" parent="1" source="B-JUW0QfOBMbbZU-h0xw-3" target="B-JUW0QfOBMbbZU-h0xw-35">
          <mxGeometry width="50" height="50" relative="1" as="geometry">
            <mxPoint x="1100" y="480" as="sourcePoint" />
            <mxPoint x="1150" y="430" as="targetPoint" />
          </mxGeometry>
        </mxCell>
        <mxCell id="B-JUW0QfOBMbbZU-h0xw-76" value="11" style="text;html=1;align=center;verticalAlign=middle;resizable=0;points=[];autosize=1;" vertex="1" parent="1">
          <mxGeometry x="1175" y="440" width="30" height="20" as="geometry" />
        </mxCell>
        <mxCell id="B-JUW0QfOBMbbZU-h0xw-78" value="type: SMTP_MAIL_FROM&lt;br&gt;address:SMTPServerAddress&lt;br&gt;session:SMTPServerSession" style="shape=callout;whiteSpace=wrap;html=1;perimeter=calloutPerimeter;position2=0.5;align=left;" vertex="1" parent="1">
          <mxGeometry x="1640" y="480" width="180" height="100" as="geometry" />
        </mxCell>
        <mxCell id="B-JUW0QfOBMbbZU-h0xw-79" value="12" style="text;html=1;align=center;verticalAlign=middle;resizable=0;points=[];autosize=1;" vertex="1" parent="1">
          <mxGeometry x="1525" y="480" width="30" height="20" as="geometry" />
        </mxCell>
        <mxCell id="B-JUW0QfOBMbbZU-h0xw-81" value="Receive_Email Workflow" style="text;html=1;align=center;verticalAlign=middle;resizable=0;points=[];autosize=1;" vertex="1" parent="1">
          <mxGeometry x="1652" y="290" width="150" height="20" as="geometry" />
        </mxCell>
        <mxCell id="B-JUW0QfOBMbbZU-h0xw-82" value="" style="rounded=0;whiteSpace=wrap;html=1;fillColor=#fff2cc;strokeColor=#d6b656;" vertex="1" parent="1">
          <mxGeometry x="2000" y="320" width="220" height="480" as="geometry" />
        </mxCell>
        <mxCell id="B-JUW0QfOBMbbZU-h0xw-84" value="type: SMTP_MAIL_FROM&lt;br&gt;address:SMTPServerAddress&lt;br&gt;session:SMTPServerSession" style="shape=callout;whiteSpace=wrap;html=1;perimeter=calloutPerimeter;position2=0.5;align=left;" vertex="1" parent="1">
          <mxGeometry x="2020" y="413" width="180" height="100" as="geometry" />
        </mxCell>
        <mxCell id="B-JUW0QfOBMbbZU-h0xw-85" value="EMAIL_CHECKER Workflow" style="text;html=1;align=center;verticalAlign=middle;resizable=0;points=[];autosize=1;" vertex="1" parent="1">
          <mxGeometry x="2022" y="290" width="170" height="20" as="geometry" />
        </mxCell>
      </root>
    </mxGraphModel>
  </diagram>
</mxfile>
